0
36
71
107
143
178
214
249
285
321
356
392
428
463
499
534
570
606
641
677
713
748
784
819
855
891
926
962
997
1033
1069
1104
1140
1175
1211
1247
1282
1318
1353
1389
1425
1460
1496
1531
1567
1603
1638
1674
1709
1745
1780
1816
1851
1887
1923
1958
1994
2029
2065
2100
2136
2171
2207
2242
2278
2313
2349
2384
2420
2455
2491
2526
2562
2597
2633
2668
2704
2739
2775
2810
2846
2881
2917
2952
2987
3023
3058
3094
3129
3165
3200
3235
3271
3306
3342
3377
3412
3448
3483
3518
3554
3589
3624
3660
3695
3730
3766
3801
3836
3872
3907
3942
3977
4013
4048
4083
4119
4154
4189
4224
4260
4295
4330
4365
4400
4436
4471
4506
4541
4576
4611
4647
4682
4717
4752
4787
4822
4857
4892
4928
4963
4998
5033
5068
5103
5138
5173
5208
5243
5278
5313
5348
5383
5418
5453
5488
5523
5558
5593
5628
5663
5698
5733
5767
5802
5837
5872
5907
5942
5977
6011
6046
6081
6116
6151
6185
6220
6255
6290
6324
6359
6394
6429
6463
6498
6533
6567
6602
6637
6671
6706
6741
6775
6810
6844
6879
6914
6948
6983
7017
7052
7086
7121
7155
7190
7224
7259
7293
7327
7362
7396
7431
7465
7499
7534
7568
7603
7637
7671
7706
7740
7774
7808
7843
7877
7911
7945
7980
8014
8048
8082
8116
8150
8185
8219
8253
8287
8321
8355
8389
8423
8457
8491
8525
8559
8593
8627
8661
8695
8729
8763
8797
8831
8865
8898
8932
8966
9000
9034
9067
9101
9135
9169
9202
9236
9270
9304
9337
9371
9405
9438
9472
9505
9539
9573
9606
9640
9673
9707
9740
9774
9807
9841
9874
9908
9941
9974
10008
10041
10074
10108
10141
10174
10208
10241
10274
10307
10341
10374
10407
10440
10473
10507
10540
10573
10606
10639
10672
10705
10738
10771
10804
10837
10870
10903
10936
10969
11002
11035
11068
11100
11133
11166
11199
11232
11264
11297
11330
11363
11395
11428
11461
11493
11526
11558
11591
11624
11656
11689
11721
11754
11786
11819
11851
11884
11916
11948
11981
12013
12045
12078
12110
12142
12175
12207
12239
12271
12304
12336
12368
12400
12432
12464
12496
12528
12560
12592
12624
12656
12688
12720
12752
12784
12816
12848
12880
12912
12944
12975
13007
13039
13071
13102
13134
13166
13197
13229
13261
13292
13324
13355
13387
13418
13450
13481
13513
13544
13576
13607
13638
13670
13701
13732
13764
13795
13826
13858
13889
13920
13951
13982
14013
14045
14076
14107
14138
14169
14200
14231
14262
14293
14324
14355
14385
14416
14447
14478
14509
14539
14570
14601
14632
14662
14693
14724
14754
14785
14815
14846
14877
14907
14938
14968
14998
15029
15059
15090
15120
15150
15181
15211
15241
15272
15302
15332
15362
15392
15422
15453
15483
15513
15543
15573
15603
15633
15663
15693
15723
15752
15782
15812
15842
15872
15902
15931
15961
15991
16020
16050
16080
16109
16139
16168
16198
16228
16257
16286
16316
16345
16375
16404
16433
16463
16492
16521
16551
16580
16609
16638
16667
16697
16726
16755
16784
16813
16842
16871
16900
16929
16958
16987
17015
17044
17073
17102
17131
17159
17188
17217
17246
17274
17303
17331
17360
17389
17417
17446
17474
17503
17531
17559
17588
17616
17644
17673
17701
17729
17757
17786
17814
17842
17870
17898
17926
17954
17982
18010
18038
18066
18094
18122
18150
18178
18206
18233
18261
18289
18317
18344
18372
18400
18427
18455
18482
18510
18538
18565
18592
18620
18647
18675
18702
18729
18757
18784
18811
18838
18866
18893
18920
18947
18974
19001
19028
19055
19082
19109
19136
19163
19190
19217
19244
19270
19297
19324
19351
19377
19404
19431
19457
19484
19510
19537
19564
19590
19616
19643
19669
19696
19722
19748
19775
19801
19827
19853
19880
19906
19932
19958
19984
20010
20036
20062
20088
20114
20140
20166
20192
20217
20243
20269
20295
20321
20346
20372
20398
20423
20449
20474
20500
20525
20551
20576
20602
20627
20652
20678
20703
20728
20754
20779
20804
20829
20854
20879
20904
20929
20955
20980
21004
21029
21054
21079
21104
21129
21154
21178
21203
21228
21253
21277
21302
21327
21351
21376
21400
21425
21449
21474
21498
21522
21547
21571
21595
21620
21644
21668
21692
21716
21740
21765
21789
21813
21837
21861
21885
21909
21932
21956
21980
22004
22028
22051
22075
22099
22123
22146
22170
22193
22217
22240
22264
22287
22311
22334
22358
22381
22404
22428
22451
22474
22497
22520
22544
22567
22590
22613
22636
22659
22682
22705
22728
22751
22773
22796
22819
22842
22864
22887
22910
22933
22955
22978
23000
23023
23045
23068
23090
23113
23135
23157
23180
23202
23224
23247
23269
23291
23313
23335
23357
23379
23401
23423
23445
23467
23489
23511
23533
23555
23577
23598
23620
23642
23663
23685
23707
23728
23750
23771
23793
23814
23836
23857
23879
23900
23921
23943
23964
23985
24006
24028
24049
24070
24091
24112
24133
24154
24175
24196
24217
24238
24259
24279
24300
24321
24342
24362
24383
24404
24424
24445
24465
24486
24506
24527
24547
24568
24588
24608
24629
24649
24669
24690
24710
24730
24750
24770
24790
24810
24830
24850
24870
24890
24910
24930
24950
24970
24989
25009
25029
25049
25068
25088
25108
25127
25147
25166
25186
25205
25225
25244
25263
25283
25302
25321
25340
25360
25379
25398
25417
25436
25455
25474
25493
25512
25531
25550
25569
25588
25607
25626
25644
25663
25682
25701
25719
25738
25756
25775
25794
25812
25831
25849
25867
25886
25904
25922
25941
25959
25977
25995
26014
26032
26050
26068
26086
26104
26122
26140
26158
26176
26194
26212
26229
26247
26265
26283
26300
26318
26336
26353
26371
26389
26406
26424
26441
26458
26476
26493
26511
26528
26545
26562
26580
26597
26614
26631
26648
26665
26682
26700
26717
26733
26750
26767
26784
26801
26818
26835
26851
26868
26885
26902
26918
26935
26951
26968
26984
27001
27017
27034
27050
27067
27083
27099
27116
27132
27148
27164
27181
27197
27213
27229
27245
27261
27277
27293
27309
27325
27341
27357
27372
27388
27404
27420
27435
27451
27467
27482
27498
27513
27529
27545
27560
27575
27591
27606
27622
27637
27652
27668
27683
27698
27713
27728
27743
27759
27774
27789
27804
27819
27834
27849
27863
27878
27893
27908
27923
27938
27952
27967
27982
27996
28011
28026
28040
28055
28069
28084
28098
28112
28127
28141
28156
28170
28184
28198
28213
28227
28241
28255
28269
28283
28297
28311
28325
28339
28353
28367
28381
28395
28409
28422
28436
28450
28464
28477
28491
28505
28518
28532
28545
28559
28572
28586
28599
28613
28626
28639
28653
28666
28679
28692
28706
28719
28732
28745
28758
28771
28784
28797
28810
28823
28836
28849
28862
28875
28888
28900
28913
28926
28939
28951
28964
28977
28989
29002
29014
29027
29039
29052
29064
29077
29089
29101
29114
29126
29138
29151
29163
29175
29187
29199
29211
29224
29236
29248
29260
29272
29284
29296
29307
29319
29331
29343
29355
29367
29378
29390
29402
29413
29425
29437
29448
29460
29471
29483
29494
29506
29517
29528
29540
29551
29562
29574
29585
29596
29607
29619
29630
29641
29652
29663
29674
29685
29696
29707
29718
29729
29740
29751
29762
29772
29783
29794
29805
29816
29826
29837
29848
29858
29869
29879
29890
29900
29911
29921
29932
29942
29953
29963
29973
29984
29994
30004
30014
30024
30035
30045
30055
30065
30075
30085
30095
30105
30115
30125
30135
30145
30155
30165
30175
30184
30194
30204
30214
30223
30233
30243
30252
30262
30272
30281
30291
30300
30310
30319
30328
30338
30347
30357
30366
30375
30385
30394
30403
30412
30422
30431
30440
30449
30458
30467
30476
30485
30494
30503
30512
30521
30530
30539
30548
30557
30565
30574
30583
30592
30600
30609
30618
30626
30635
30644
30652
30661
30669
30678
30686
30695
30703
30711
30720
30728
30737
30745
30753
30761
30770
30778
30786
30794
30802
30811
30819
30827
30835
30843
30851
30859
30867
30875
30883
30891
30899
30906
30914
30922
30930
30938
30945
30953
30961
30969
30976
30984
30991
30999
31007
31014
31022
31029
31037
31044
31052
31059
31066
31074
31081
31088
31096
31103
31110
31118
31125
31132
31139
31146
31153
31161
31168
31175
31182
31189
31196
31203
31210
31217
31224
31230
31237
31244
31251
31258
31265
31271
31278
31285
31292
31298
31305
31312
31318
31325
31331
31338
31345
31351
31358
31364
31371
31377
31383
31390
31396
31403
31409
31415
31421
31428
31434
31440
31446
31453
31459
31465
31471
31477
31483
31489
31496
31502
31508
31514
31520
31526
31531
31537
31543
31549
31555
31561
31567
31572
31578
31584
31590
31596
31601
31607
31613
31618
31624
31629
31635
31641
31646
31652
31657
31663
31668
31674
31679
31685
31690
31695
31701
31706
31711
31717
31722
31727
31732
31738
31743
31748
31753
31758
31764
31769
31774
31779
31784
31789
31794
31799
31804
31809
31814
31819
31824
31829
31834
31839
31843
31848
31853
31858
31863
31868
31872
31877
31882
31886
31891
31896
31900
31905
31910
31914
31919
31923
31928
31932
31937
31941
31946
31950
31955
31959
31964
31968
31972
31977
31981
31985
31990
31994
31998
32003
32007
32011
32015
32019
32024
32028
32032
32036
32040
32044
32048
32052
32056
32061
32065
32069
32073
32076
32080
32084
32088
32092
32096
32100
32104
32108
32111
32115
32119
32123
32127
32130
32134
32138
32142
32145
32149
32153
32156
32160
32163
32167
32171
32174
32178
32181
32185
32188
32192
32195
32199
32202
32206
32209
32212
32216
32219
32223
32226
32229
32233
32236
32239
32242
32246
32249
32252
32255
32259
32262
32265
32268
32271
32274
32278
32281
32284
32287
32290
32293
32296
32299
32302
32305
32308
32311
32314
32317
32320
32323
32326
32328
32331
32334
32337
32340
32343
32346
32348
32351
32354
32357
32359
32362
32365
32368
32370
32373
32376
32378
32381
32384
32386
32389
32391
32394
32396
32399
32402
32404
32407
32409
32412
32414
32417
32419
32421
32424
32426
32429
32431
32433
32436
32438
32441
32443
32445
32448
32450
32452
32454
32457
32459
32461
32463
32466
32468
32470
32472
32474
32477
32479
32481
32483
32485
32487
32489
32491
32493
32496
32498
32500
32502
32504
32506
32508
32510
32512
32514
32516
32518
32519
32521
32523
32525
32527
32529
32531
32533
32535
32536
32538
32540
32542
32544
32545
32547
32549
32551
32552
32554
32556
32558
32559
32561
32563
32564
32566
32568
32569
32571
32573
32574
32576
32578
32579
32581
32582
32584
32585
32587
32588
32590
32592
32593
32595
32596
32598
32599
32600
32602
32603
32605
32606
32608
32609
32610
32612
32613
32615
32616
32617
32619
32620
32621
32623
32624
32625
32627
32628
32629
32630
32632
32633
32634
32635
32637
32638
32639
32640
32642
32643
32644
32645
32646
32647
32649
32650
32651
32652
32653
32654
32655
32656
32658
32659
32660
32661
32662
32663
32664
32665
32666
32667
32668
32669
32670
32671
32672
32673
32674
32675
32676
32677
32678
32679
32680
32681
32681
32682
32683
32684
32685
32686
32687
32688
32689
32689
32690
32691
32692
32693
32694
32694
32695
32696
32697
32698
32698
32699
32700
32701
32701
32702
32703
32704
32704
32705
32706
32707
32707
32708
32709
32709
32710
32711
32712
32712
32713
32714
32714
32715
32715
32716
32717
32717
32718
32719
32719
32720
32720
32721
32722
32722
32723
32723
32724
32724
32725
32726
32726
32727
32727
32728
32728
32729
32729
32730
32730
32731
32731
32732
32732
32733
32733
32734
32734
32735
32735
32736
32736
32736
32737
32737
32738
32738
32739
32739
32739
32740
32740
32741
32741
32741
32742
32742
32743
32743
32743
32744
32744
32744
32745
32745
32746
32746
32746
32747
32747
32747
32748
32748
32748
32749
32749
32749
32749
32750
32750
32750
32751
32751
32751
32751
32752
32752
32752
32753
32753
32753
32753
32754
32754
32754
32754
32755
32755
32755
32755
32755
32756
32756
32756
32756
32757
32757
32757
32757
32757
32758
32758
32758
32758
32758
32759
32759
32759
32759
32759
32759
32760
32760
32760
32760
32760
32760
32761
32761
32761
32761
32761
32761
32761
32762
32762
32762
32762
32762
32762
32762
32762
32763
32763
32763
32763
32763
32763
32763
32763
32763
32764
32764
32764
32764
32764
32764
32764
32764
32764
32764
32764
32764
32765
32765
32765
32765
32765
32765
32765
32765
32765
32765
32765
32765
32765
32765
32766
32766
32766
32766
32766
32766
32766
32766
32766
32766
32766
32766
32766
32766
32766
32766
32766
32766
32766
32766
32766
32766
32766
32766
32766
32767
32767
32767
32767
32767
32767
32767
32767
32767
32767
32767
32767
32767
32767
32767
32767
32767
32767
32767
32767
32767
32767
32767
32767
32767
32767
32767
32767
32767
32767
32767
32767
32767
32767
32767
32767
32767
32767
32767
32767
32767
32767
32767
32767
32767
32767
32767
32767
32767
32767
32767
32767
32767
32767
32767
32767
32767
32767
